…
In our case, `\(\hat p\)` covers the values in our `fit` column and the `\(t(\hat \beta)\)` part is what we did with `predict()`. Well, technically we should refer to those `fit` values as `\(\hat p_j\)`, where `\(j\)` is the index for a given imputed data set, `\(j = 1, \dots, m\)`, and `\(m\)` is the total number of imputations. In our `fitted_lines` tibble, we have called Miles’s `\(m\)` index `.imp`[^2].

Anyway, Miles showed we can compute the conditional pooled point estimate `\(\bar p\)` by

`$$\bar p = \frac{1}{m} \sum_{j=1}^m \hat p_j,$$`

which is a formal way of saying we simply average across the `\(m\)` imputed solutions. Here’s that in code.

``` r
fitted_lines %>% 
  group_by(ses) %>% 
  summarise(fit_bar = mean(fit))
```

    ## # A tibble: 30 × 2
    ##       ses fit_bar
    ##     <dbl>   <dbl>
    ##  1 -16.7   -2.07 
    ##  2 -15.4   -1.91 
    ##  3 -14.2   -1.76 
    ##  4 -12.9   -1.60 
    ##  5 -11.7   -1.45 
    ##  6 -10.5   -1.30 
    ##  7  -9.22  -1.14 
    ##  8  -7.98  -0.989
    ##  9  -6.74  -0.835
    ## 10  -5.49  -0.681
    ## # … with 20 more rows

Though the expected values are pretty easy to compute, it’ll take a little more effort to express the uncertainty around those expectations because we have to account for both within- and between-imputation variance. We can define the within-imputation variance `\(V_W\)` as

`$$V_W = \frac{1}{m} \sum_{j=1}^m \widehat{SE}_j^2,$$`

which is a formal way of saying we simply average the squared standard errors across the `\(m\)` imputed solutions, for each fitted value. Here’s that in code.

``` r
fitted_lines %>% 
  group_by(ses) %>% 
  summarise(fit_bar = mean(fit),
            v_w     = mean(se.fit^2))
```

    ## # A tibble: 30 × 3
    ##       ses fit_bar    v_w
    ##     <dbl>   <dbl>  <dbl>
    ##  1 -16.7   -2.07  0.260 
    ##  2 -15.4   -1.91  0.232 
    ##  3 -14.2   -1.76  0.206 
    ##  4 -12.9   -1.60  0.182 
    ##  5 -11.7   -1.45  0.161 
    ##  6 -10.5   -1.30  0.142 
    ##  7  -9.22  -1.14  0.126 
    ##  8  -7.98  -0.989 0.112 
    ##  9  -6.74  -0.835 0.100 
    ## 10  -5.49  -0.681 0.0908
    ## # … with 20 more rows
…
where we’re no longer quite averaging across the `\(m\)` imputations because our denominator is now the corrected value `\((m - 1)\)`. What can I say? Variances are tricky. Here’s the code.

``` r
# define the total number of imputations
m <- 10

fitted_lines %>% 
  group_by(ses) %>% 
  summarise(fit_bar = mean(fit),
            v_w     = mean(se.fit^2),
            v_b     = sum((fit - fit_bar)^2) / (m - 1))
```

    ## # A tibble: 30 × 4
    ##       ses fit_bar    v_w    v_b
    ##     <dbl>   <dbl>  <dbl>  <dbl>
    ##  1 -16.7   -2.07  0.260  0.0833
    ##  2 -15.4   -1.91  0.232  0.0742
    ##  3 -14.2   -1.76  0.206  0.0657
    ##  4 -12.9   -1.60  0.182  0.0579
    ##  5 -11.7   -1.45  0.161  0.0508
    ##  6 -10.5   -1.30  0.142  0.0444
    ##  7  -9.22  -1.14  0.126  0.0387
    ##  8  -7.98  -0.989 0.112  0.0336
    ##  9  -6.74  -0.835 0.100  0.0293
    ## 10  -5.49  -0.681 0.0908 0.0256
    ## # … with 20 more rows
…
`$$V_{\bar p} = V_W + V_B \left ( 1 + \frac{1}{m} \right ),$$`

where the pooled standard error is just `\(\sqrt{V_{\bar p}}\)`. Here are those in code.

``` r
fitted_lines %>% 
  group_by(ses) %>% 
  summarise(fit_bar = mean(fit),
            v_w     = mean(se.fit^2),
            v_b     = sum((fit - fit_bar)^2) / (m - 1),
            v_p     = v_w + v_b * (1 + (1 / m)),
            se_p    = sqrt(v_p))
```

    ## # A tibble: 30 × 6
    ##       ses fit_bar    v_w    v_b   v_p  se_p
    ##     <dbl>   <dbl>  <dbl>  <dbl> <dbl> <dbl>
    ##  1 -16.7   -2.07  0.260  0.0833 0.352 0.593
    ##  2 -15.4   -1.91  0.232  0.0742 0.313 0.560
    ##  3 -14.2   -1.76  0.206  0.0657 0.278 0.527
    ##  4 -12.9   -1.60  0.182  0.0579 0.246 0.496
    ##  5 -11.7   -1.45  0.161  0.0508 0.217 0.465
    ##  6 -10.5   -1.30  0.142  0.0444 0.191 0.437
    ##  7  -9.22  -1.14  0.126  0.0387 0.168 0.410
    ##  8  -7.98  -0.989 0.112  0.0336 0.149 0.385
    ##  9  -6.74  -0.835 0.100  0.0293 0.132 0.364
    ## 10  -5.49  -0.681 0.0908 0.0256 0.119 0.345
    ## # … with 20 more rows
…
