…
Thus we expect our hypothetical person with demographics at the mean and/or modes for the covariates will be about 22% more likely to get tested if given the intervention, compared to if she had not.

### Compute `\(\operatorname{\mathbb{E}} (p_i^1 | \mathbf C = \mathbf c, \mathbf D = \mathbf d) - \operatorname{\mathbb{E}} (p_i^0 | \mathbf C = \mathbf c, \mathbf D = \mathbf d)\)` from `glm2`.

Since the `\(\tau_\text{TEMM}\)` is just a special case of a `\(\tau_\text{CATE}\)`, we might practice computing our estimate for `\(\tau_\text{CATE}\)` with a different set of covariate values. Men who have sex with men (MSM) were one of the vulnerable subgroups of interest in Wilson et al. ([2017](#ref-wilson2017internet)), so we might take a look to see which combination of covariate values was most common for MSM in our subset of the data.

``` r
wilson2017 %>% 
  filter(msm == "msm") %>% 
  count(age, agez, ethnicgrp, partners) %>% 
  arrange(desc(n))
```

    ## # A tibble: 45 × 5
    ##      age    agez ethnicgrp            partners     n
    ##    <dbl>   <dbl> <fct>                <fct>    <int>
    ##  1    26  0.894  White/ White British 10+          5
    ##  2    28  1.46   White/ White British 10+          4
    ##  3    24  0.323  White/ White British 10+          3
    ##  4    21 -0.533  White/ White British 10+          2
    ##  5    23  0.0378 White/ White British 5            2
    ##  6    25  0.609  White/ White British 6            2
    ##  7    26  0.894  White/ White British 6            2
    ##  8    29  1.75   White/ White British 5            2
    ##  9    18 -1.39   White/ White British 5            1
    ## 10    19 -1.10   White/ White British 4            1
    ## # … with 35 more rows
…
<img src="{{< blogdown/postref >}}index_files/figure-html/unnamed-chunk-47-1.png" width="384" />

``` r
id_low_se <- comparisons(glm2, newdata = nd, variables = "tx", by = "id")  %>% 
  data.frame() %>% 
  filter(std.error < 0.02) %>% 
  pull(id)
```

``` r
nd
```

    ## # A tibble: 4,500 × 7
    ##     agez gender msm   ethnicgrp            partners    id    tx
    ##    <dbl> <fct>  <fct> <fct>                <fct>    <int> <int>
    ##  1 -1.96 Female other White/ White British 1            1     0
    ##  2 -1.96 Female other White/ White British 1            1     1
    ##  3 -1.96 Female other White/ White British 2            2     0
    ##  4 -1.96 Female other White/ White British 2            2     1
    ##  5 -1.96 Female other White/ White British 3            3     0
    ##  6 -1.96 Female other White/ White British 3            3     1
    ##  7 -1.96 Female other White/ White British 4            4     0
    ##  8 -1.96 Female other White/ White British 4            4     1
    ##  9 -1.96 Female other White/ White British 5            5     0
    ## 10 -1.96 Female other White/ White British 5            5     1
    ## # … with 4,490 more rows

``` r
nd %>% 
  filter(id %in% id_low_se)
```

    ## # A tibble: 900 × 7
    ##     agez gender msm   ethnicgrp partners    id    tx
    ##    <dbl> <fct>  <fct> <fct>     <fct>    <int> <int>
    ##  1 -1.96 Female other Other     1           41     0
    ##  2 -1.96 Female other Other     1           41     1
    ##  3 -1.96 Female other Other     2           42     0
    ##  4 -1.96 Female other Other     2           42     1
    ##  5 -1.96 Female other Other     3           43     0
    ##  6 -1.96 Female other Other     3           43     1
    ##  7 -1.96 Female other Other     4           44     0
    ##  8 -1.96 Female other Other     4           44     1
    ##  9 -1.96 Female other Other     5           45     0
    ## 10 -1.96 Female other Other     5           45     1
    ## # … with 890 more rows
…
