…
nd_id %>% 
  filter(id %in% random_50) %>% 
  add_linpred_draws(fit2) %>% 
  ungroup() %>% 
  select(id, protection, .draw, .linpred) %>% 
  pivot_wider(names_from = protection, values_from = .linpred) %>% 
  mutate(d = `1` - `0`) %>% 
  group_by(id) %>% 
  summarise(m = mean(d),
            s = sd(d),
            ll = quantile(d, probs = .025),
            ul = quantile(d, probs = .975))
```

    ## # A tibble: 50 × 5
    ##       id      m     s     ll    ul
    ##    <int>  <dbl> <dbl>  <dbl> <dbl>
    ##  1     9 0.0298 0.123 -0.207 0.272
    ##  2    50 0.0298 0.123 -0.207 0.272
    ##  3    53 0.0298 0.123 -0.207 0.272
    ##  4    69 0.0298 0.123 -0.207 0.272
    ##  5    70 0.0298 0.123 -0.207 0.272
    ##  6    84 0.0298 0.123 -0.207 0.272
    ##  7   113 0.0298 0.123 -0.207 0.272
    ##  8   121 0.0298 0.123 -0.207 0.272
    ##  9   146 0.0298 0.123 -0.207 0.272
    ## 10   151 0.0298 0.123 -0.207 0.272
    ## # ℹ 40 more rows
…
