…
With a little more wrangling, we can compute the point estimates for `\((y_i^1 - y_i^0 | c_i)\)`.

``` r
predict(fit2, 
        newdata = nd,
        se.fit = TRUE,
        interval = "confidence") %>% 
  data.frame() %>% 
  bind_cols(nd) %>% 
  select(sn:experimental, fit.fit) %>% 
  pivot_wider(names_from = experimental, values_from = fit.fit) %>% 
  mutate(tau = `1` - `0`)
```

    ## # A tibble: 41 × 5
    ##       sn   prec   `0`   `1`   tau
    ##    <int>  <dbl> <dbl> <dbl> <dbl>
    ##  1     1  -5.34  150.  145. -4.57
    ##  2     2 -23.6   133.  129. -4.57
    ##  3     3  -8.34  147.  143. -4.57
    ##  4     4 -21.6   135.  131. -4.57
    ##  5     5 -23.8   133.  129. -4.57
    ##  6     6 -13.8   142.  138. -4.57
    ##  7     7  -9.09  147.  142. -4.57
    ##  8     8  -8.09  147.  143. -4.57
    ##  9     9  17.7   171.  166. -4.57
    ## 10    10   1.66  156.  152. -4.57
    ## # … with 31 more rows
…
